{
  "content": [
    {
      "id": "2b86a253-1fb3-4c42-94f2-040a71fe06e9",
      "title": "a",
      "content": "",
      "created": "2023-06-07T14:21:53.211067",
      "updated": "2023-06-07T14:21:53.211118"
    },
    {
      "id": "8f997dfd-f41f-4253-ad23-a5384e47d069",
      "title": "Note from client",
      "content": "Note note after moving rest to bean",
      "created": "2023-06-07T13:01:55.31439",
      "updated": "2023-06-07T13:01:55.314439"
    },
    {
      "id": "788d07c2-8e24-4c05-bdc9-abc9ffcfaf54",
      "title": "Note from client",
      "content": "Updated from client again",
      "created": "2023-06-06T16:49:40.441672",
      "updated": "2023-06-07T11:54:03.201421"
    },
    {
      "id": "f72bfa6e-579e-418e-b27f-a3509b714c40",
      "title": "Music top 10",
      "content": "",
      "created": "2023-06-06T16:49:02.942236",
      "updated": "2023-06-06T16:49:02.942291"
    },
    {
      "id": "00d98d13-632d-446c-bc48-961e69821ad5",
      "title": "hi note",
      "content": "",
      "created": "2023-06-06T16:48:37.197449",
      "updated": "2023-06-06T16:48:37.197598"
    },
    {
      "id": "d8db6cf7-a0b2-475a-9862-9e9ea3dd1979",
      "title": "new kafka notwe",
      "content": "",
      "created": "2023-06-06T16:42:54.081276",
      "updated": "2023-06-06T16:42:54.08143"
    },
    {
      "id": "0fd0aa0e-efe7-4976-8116-a47be5a649c5",
      "title": "Note kafka 123",
      "content": "",
      "created": "2023-06-06T16:41:07.68051",
      "updated": "2023-06-06T16:41:07.680585"
    },
    {
      "id": "f5fcd121-3f8e-4b94-acde-265230542067",
      "title": "kafka kafka",
      "content": "kafka",
      "created": "2023-06-06T16:39:42.399994",
      "updated": "2023-06-06T16:39:42.400117"
    },
    {
      "id": "d10149ae-f6a2-48bd-9e65-b99f21be4eeb",
      "title": "Another Kafka note",
      "content": "kafka note",
      "created": "2023-06-06T16:38:13.393732",
      "updated": "2023-06-06T16:38:13.39386"
    },
    {
      "id": "e318e965-cec9-4d0a-b90a-cc9a24b45594",
      "title": "new note for kafka",
      "content": "kafka",
      "created": "2023-06-06T16:36:10.597436",
      "updated": "2023-06-06T16:36:10.597525"
    },
    {
      "id": "f9eca8af-ed53-40c3-a30d-047a91158217",
      "title": "Note",
      "content": "note note note Lorem ipsumnote note note Lorem ipsumnote note note Lorem ipsumnote note note Lorem ipsumnote note note Lorem ipsumnote note note Lorem ipsumnote note note Lorem ipsum\r\n\r\nnote note note Lorem ipsumnote note note Lorem ipsumnote note note Lorem ipsumnote note note Lorem ipsumnote note note Lorem ipsumnote note note Lorem ipsumnote note note Lorem ipsumnote note note Lorem ipsumnote note note Lorem ipsumnote note note Lorem ipsumnote note note Lorem ipsumnote note note Lorem ipsumnote note note Lorem ipsumnote note note Lorem ipsum\r\n\r\nnote note note Lorem ipsumnote note note Lorem ipsumnote note note Lorem ipsumnote note note Lorem ipsumnote note note Lorem ipsumnote note note Lorem ipsumnote note note Lorem ipsumnote note note Lorem ipsumnote note note Lorem ipsumnote note note Lorem ipsumnote note note Lorem ipsumnote note note Lorem ipsumnote note note Lorem ipsumnote note note Lorem ipsum\r\n\r\nnote note note Lorem ipsum",
      "created": "2023-05-30T12:24:22.524346",
      "updated": "2023-06-06T14:57:02.697335"
    },
    {
      "id": "39f7978f-ca4d-46fe-97fd-5bfaf59ebfc4",
      "title": "My note 123",
      "content": "note note note",
      "created": "2023-06-06T14:52:07.952616",
      "updated": "2023-06-06T14:52:07.952649"
    },
    {
      "id": "b5ad585d-52d4-4a11-9dad-f81390ecab65",
      "title": "a",
      "content": "",
      "created": "2023-06-06T13:31:53.590328",
      "updated": "2023-06-06T13:31:53.594619"
    },
    {
      "id": "3f37e916-bc7c-422b-99a1-611e7e19ab8d",
      "title": "log4",
      "content": "2",
      "created": "2023-06-06T13:24:24.601859",
      "updated": "2023-06-06T13:24:24.602702"
    },
    {
      "id": "0b21a8c0-86c3-4fc1-a55d-4eb7eccfb6ff",
      "title": "log4",
      "content": "444",
      "created": "2023-06-06T13:22:57.022478",
      "updated": "2023-06-06T13:22:57.02257"
    },
    {
      "id": "35bef4d4-2d17-4825-8e84-c32bf493d0e8",
      "title": "log3",
      "content": "---",
      "created": "2023-06-06T13:17:05.850432",
      "updated": "2023-06-06T13:17:05.850557"
    },
    {
      "id": "40cb6e18-24a0-4870-92f6-c540a09dddcf",
      "title": "Logger2",
      "content": "2222",
      "created": "2023-06-06T13:07:41.09231",
      "updated": "2023-06-06T13:07:41.093161"
    },
    {
      "id": "9ae0a161-303e-4348-81ce-2967ec22ee69",
      "title": "Logger",
      "content": "logging ",
      "created": "2023-06-06T13:05:19.751416",
      "updated": "2023-06-06T13:05:19.75148"
    },
    {
      "id": "82af16d4-c41e-4723-bc4f-a1f26495144d",
      "title": "Note from client",
      "content": "Note note",
      "created": "2023-06-03T14:35:05.26389",
      "updated": "2023-06-03T14:35:05.264027"
    },
    {
      "id": "14510321-0d4a-4e58-b57d-ca3472195828",
      "title": "Note title 60",
      "content": "This book is sure to liquefy your brain. lalalalalal",
      "created": "2023-05-29T16:24:01.617007",
      "updated": "2023-05-30T17:15:56.092731"
    }
  ],
  "pageable": {
    "sort": {
      "empty": false,
      "sorted": true,
      "unsorted": false
    },
    "offset": 0,
    "pageNumber": 0,
    "pageSize": 20,
    "paged": true,
    "unpaged": false
  },
  "totalPages": 10,
  "totalElements": 196,
  "last": false,
  "size": 20,
  "number": 0,
  "sort": {
    "empty": false,
    "sorted": true,
    "unsorted": false
  },
  "numberOfElements": 20,
  "first": true,
  "empty": false
}